<svg xmlns="http://www.w3.org/2000/svg" width="41" height="32" fill="none" viewBox="0 0 41 32">
  <path fill="#fff" d="M32.834 18v-4h7.963v4h-7.963Zm2.389 14-6.37-4.8L31.24 24l6.371 4.8-2.389 3.2ZM31.241 8l-2.389-3.2L35.224 0l2.389 3.2-6.37 4.8ZM6.954 30v-8h-1.99c-1.096 0-2.033-.392-2.814-1.176C1.37 20.04.98 19.099.982 18v-4c0-1.1.39-2.042 1.17-2.826.78-.784 1.718-1.175 2.811-1.174h7.963l9.954-6v24l-9.954-6h-1.99v8H6.953Zm17.917-7.3V9.3a9.14 9.14 0 0 1 2.166 2.926c.548 1.15.822 2.409.82 3.774 0 1.367-.274 2.625-.822 3.776a9.148 9.148 0 0 1-2.164 2.924ZM4.963 14v4h9.058l4.878 2.9v-9.8L14.02 14H4.963Z"/>
</svg>
